%!PS-Adobe-2.0 EPSF-2.0
%%Title: graph.eps
%%Creator: gnuplot 5.2 patchlevel 2
%%CreationDate: Sun Jun 10 13:26:46 2018
%%DocumentFonts: (atend)
%%BoundingBox: 50 50 410 302
%%EndComments
%%BeginProlog
/gnudict 256 dict def
gnudict begin
%
% The following true/false flags may be edited by hand if desired.
% The unit line width and grayscale image gamma correction may also be changed.
%
/Color true def
/Blacktext false def
/Solid false def
/Dashlength 1 def
/Landscape false def
/Level1 false def
/Level3 false def
/Rounded false def
/ClipToBoundingBox false def
/SuppressPDFMark false def
/TransparentPatterns false def
/gnulinewidth 5.000 def
/userlinewidth gnulinewidth def
/Gamma 1.0 def
/BackgroundColor {-1.000 -1.000 -1.000} def
%
/vshift -46 def
/dl1 {
  10.0 Dashlength userlinewidth gnulinewidth div mul mul mul
  Rounded { currentlinewidth 0.75 mul sub dup 0 le { pop 0.01 } if } if
} def
/dl2 {
  10.0 Dashlength userlinewidth gnulinewidth div mul mul mul
  Rounded { currentlinewidth 0.75 mul add } if
} def
/hpt_ 31.5 def
/vpt_ 31.5 def
/hpt hpt_ def
/vpt vpt_ def
/doclip {
  ClipToBoundingBox {
    newpath 50 50 moveto 410 50 lineto 410 302 lineto 50 302 lineto closepath
    clip
  } if
} def
%
% Gnuplot Prolog Version 5.1 (Oct 2015)
%
%/SuppressPDFMark true def
%
/M {moveto} bind def
/L {lineto} bind def
/R {rmoveto} bind def
/V {rlineto} bind def
/N {newpath moveto} bind def
/Z {closepath} bind def
/C {setrgbcolor} bind def
/f {rlineto fill} bind def
/g {setgray} bind def
/Gshow {show} def   % May be redefined later in the file to support UTF-8
/vpt2 vpt 2 mul def
/hpt2 hpt 2 mul def
/Lshow {currentpoint stroke M 0 vshift R 
	Blacktext {gsave 0 setgray textshow grestore} {textshow} ifelse} def
/Rshow {currentpoint stroke M dup stringwidth pop neg vshift R
	Blacktext {gsave 0 setgray textshow grestore} {textshow} ifelse} def
/Cshow {currentpoint stroke M dup stringwidth pop -2 div vshift R 
	Blacktext {gsave 0 setgray textshow grestore} {textshow} ifelse} def
/UP {dup vpt_ mul /vpt exch def hpt_ mul /hpt exch def
  /hpt2 hpt 2 mul def /vpt2 vpt 2 mul def} def
/DL {Color {setrgbcolor Solid {pop []} if 0 setdash}
 {pop pop pop 0 setgray Solid {pop []} if 0 setdash} ifelse} def
/BL {stroke userlinewidth 2 mul setlinewidth
	Rounded {1 setlinejoin 1 setlinecap} if} def
/AL {stroke userlinewidth 2 div setlinewidth
	Rounded {1 setlinejoin 1 setlinecap} if} def
/UL {dup gnulinewidth mul /userlinewidth exch def
	dup 1 lt {pop 1} if 10 mul /udl exch def} def
/PL {stroke userlinewidth setlinewidth
	Rounded {1 setlinejoin 1 setlinecap} if} def
3.8 setmiterlimit
% Classic Line colors (version 5.0)
/LCw {1 1 1} def
/LCb {0 0 0} def
/LCa {0 0 0} def
/LC0 {1 0 0} def
/LC1 {0 1 0} def
/LC2 {0 0 1} def
/LC3 {1 0 1} def
/LC4 {0 1 1} def
/LC5 {1 1 0} def
/LC6 {0 0 0} def
/LC7 {1 0.3 0} def
/LC8 {0.5 0.5 0.5} def
% Default dash patterns (version 5.0)
/LTB {BL [] LCb DL} def
/LTw {PL [] 1 setgray} def
/LTb {PL [] LCb DL} def
/LTa {AL [1 udl mul 2 udl mul] 0 setdash LCa setrgbcolor} def
/LT0 {PL [] LC0 DL} def
/LT1 {PL [2 dl1 3 dl2] LC1 DL} def
/LT2 {PL [1 dl1 1.5 dl2] LC2 DL} def
/LT3 {PL [6 dl1 2 dl2 1 dl1 2 dl2] LC3 DL} def
/LT4 {PL [1 dl1 2 dl2 6 dl1 2 dl2 1 dl1 2 dl2] LC4 DL} def
/LT5 {PL [4 dl1 2 dl2] LC5 DL} def
/LT6 {PL [1.5 dl1 1.5 dl2 1.5 dl1 1.5 dl2 1.5 dl1 6 dl2] LC6 DL} def
/LT7 {PL [3 dl1 3 dl2 1 dl1 3 dl2] LC7 DL} def
/LT8 {PL [2 dl1 2 dl2 2 dl1 6 dl2] LC8 DL} def
/SL {[] 0 setdash} def
/Pnt {stroke [] 0 setdash gsave 1 setlinecap M 0 0 V stroke grestore} def
/Dia {stroke [] 0 setdash 2 copy vpt add M
  hpt neg vpt neg V hpt vpt neg V
  hpt vpt V hpt neg vpt V closepath stroke
  Pnt} def
/Pls {stroke [] 0 setdash vpt sub M 0 vpt2 V
  currentpoint stroke M
  hpt neg vpt neg R hpt2 0 V stroke
 } def
/Box {stroke [] 0 setdash 2 copy exch hpt sub exch vpt add M
  0 vpt2 neg V hpt2 0 V 0 vpt2 V
  hpt2 neg 0 V closepath stroke
  Pnt} def
/Crs {stroke [] 0 setdash exch hpt sub exch vpt add M
  hpt2 vpt2 neg V currentpoint stroke M
  hpt2 neg 0 R hpt2 vpt2 V stroke} def
/TriU {stroke [] 0 setdash 2 copy vpt 1.12 mul add M
  hpt neg vpt -1.62 mul V
  hpt 2 mul 0 V
  hpt neg vpt 1.62 mul V closepath stroke
  Pnt} def
/Star {2 copy Pls Crs} def
/BoxF {stroke [] 0 setdash exch hpt sub exch vpt add M
  0 vpt2 neg V hpt2 0 V 0 vpt2 V
  hpt2 neg 0 V closepath fill} def
/TriUF {stroke [] 0 setdash vpt 1.12 mul add M
  hpt neg vpt -1.62 mul V
  hpt 2 mul 0 V
  hpt neg vpt 1.62 mul V closepath fill} def
/TriD {stroke [] 0 setdash 2 copy vpt 1.12 mul sub M
  hpt neg vpt 1.62 mul V
  hpt 2 mul 0 V
  hpt neg vpt -1.62 mul V closepath stroke
  Pnt} def
/TriDF {stroke [] 0 setdash vpt 1.12 mul sub M
  hpt neg vpt 1.62 mul V
  hpt 2 mul 0 V
  hpt neg vpt -1.62 mul V closepath fill} def
/DiaF {stroke [] 0 setdash vpt add M
  hpt neg vpt neg V hpt vpt neg V
  hpt vpt V hpt neg vpt V closepath fill} def
/Pent {stroke [] 0 setdash 2 copy gsave
  translate 0 hpt M 4 {72 rotate 0 hpt L} repeat
  closepath stroke grestore Pnt} def
/PentF {stroke [] 0 setdash gsave
  translate 0 hpt M 4 {72 rotate 0 hpt L} repeat
  closepath fill grestore} def
/Circle {stroke [] 0 setdash 2 copy
  hpt 0 360 arc stroke Pnt} def
/CircleF {stroke [] 0 setdash hpt 0 360 arc fill} def
/C0 {BL [] 0 setdash 2 copy moveto vpt 90 450 arc} bind def
/C1 {BL [] 0 setdash 2 copy moveto
	2 copy vpt 0 90 arc closepath fill
	vpt 0 360 arc closepath} bind def
/C2 {BL [] 0 setdash 2 copy moveto
	2 copy vpt 90 180 arc closepath fill
	vpt 0 360 arc closepath} bind def
/C3 {BL [] 0 setdash 2 copy moveto
	2 copy vpt 0 180 arc closepath fill
	vpt 0 360 arc closepath} bind def
/C4 {BL [] 0 setdash 2 copy moveto
	2 copy vpt 180 270 arc closepath fill
	vpt 0 360 arc closepath} bind def
/C5 {BL [] 0 setdash 2 copy moveto
	2 copy vpt 0 90 arc
	2 copy moveto
	2 copy vpt 180 270 arc closepath fill
	vpt 0 360 arc} bind def
/C6 {BL [] 0 setdash 2 copy moveto
	2 copy vpt 90 270 arc closepath fill
	vpt 0 360 arc closepath} bind def
/C7 {BL [] 0 setdash 2 copy moveto
	2 copy vpt 0 270 arc closepath fill
	vpt 0 360 arc closepath} bind def
/C8 {BL [] 0 setdash 2 copy moveto
	2 copy vpt 270 360 arc closepath fill
	vpt 0 360 arc closepath} bind def
/C9 {BL [] 0 setdash 2 copy moveto
	2 copy vpt 270 450 arc closepath fill
	vpt 0 360 arc closepath} bind def
/C10 {BL [] 0 setdash 2 copy 2 copy moveto vpt 270 360 arc closepath fill
	2 copy moveto
	2 copy vpt 90 180 arc closepath fill
	vpt 0 360 arc closepath} bind def
/C11 {BL [] 0 setdash 2 copy moveto
	2 copy vpt 0 180 arc closepath fill
	2 copy moveto
	2 copy vpt 270 360 arc closepath fill
	vpt 0 360 arc closepath} bind def
/C12 {BL [] 0 setdash 2 copy moveto
	2 copy vpt 180 360 arc closepath fill
	vpt 0 360 arc closepath} bind def
/C13 {BL [] 0 setdash 2 copy moveto
	2 copy vpt 0 90 arc closepath fill
	2 copy moveto
	2 copy vpt 180 360 arc closepath fill
	vpt 0 360 arc closepath} bind def
/C14 {BL [] 0 setdash 2 copy moveto
	2 copy vpt 90 360 arc closepath fill
	vpt 0 360 arc} bind def
/C15 {BL [] 0 setdash 2 copy vpt 0 360 arc closepath fill
	vpt 0 360 arc closepath} bind def
/Rec {newpath 4 2 roll moveto 1 index 0 rlineto 0 exch rlineto
	neg 0 rlineto closepath} bind def
/Square {dup Rec} bind def
/Bsquare {vpt sub exch vpt sub exch vpt2 Square} bind def
/S0 {BL [] 0 setdash 2 copy moveto 0 vpt rlineto BL Bsquare} bind def
/S1 {BL [] 0 setdash 2 copy vpt Square fill Bsquare} bind def
/S2 {BL [] 0 setdash 2 copy exch vpt sub exch vpt Square fill Bsquare} bind def
/S3 {BL [] 0 setdash 2 copy exch vpt sub exch vpt2 vpt Rec fill Bsquare} bind def
/S4 {BL [] 0 setdash 2 copy exch vpt sub exch vpt sub vpt Square fill Bsquare} bind def
/S5 {BL [] 0 setdash 2 copy 2 copy vpt Square fill
	exch vpt sub exch vpt sub vpt Square fill Bsquare} bind def
/S6 {BL [] 0 setdash 2 copy exch vpt sub exch vpt sub vpt vpt2 Rec fill Bsquare} bind def
/S7 {BL [] 0 setdash 2 copy exch vpt sub exch vpt sub vpt vpt2 Rec fill
	2 copy vpt Square fill Bsquare} bind def
/S8 {BL [] 0 setdash 2 copy vpt sub vpt Square fill Bsquare} bind def
/S9 {BL [] 0 setdash 2 copy vpt sub vpt vpt2 Rec fill Bsquare} bind def
/S10 {BL [] 0 setdash 2 copy vpt sub vpt Square fill 2 copy exch vpt sub exch vpt Square fill
	Bsquare} bind def
/S11 {BL [] 0 setdash 2 copy vpt sub vpt Square fill 2 copy exch vpt sub exch vpt2 vpt Rec fill
	Bsquare} bind def
/S12 {BL [] 0 setdash 2 copy exch vpt sub exch vpt sub vpt2 vpt Rec fill Bsquare} bind def
/S13 {BL [] 0 setdash 2 copy exch vpt sub exch vpt sub vpt2 vpt Rec fill
	2 copy vpt Square fill Bsquare} bind def
/S14 {BL [] 0 setdash 2 copy exch vpt sub exch vpt sub vpt2 vpt Rec fill
	2 copy exch vpt sub exch vpt Square fill Bsquare} bind def
/S15 {BL [] 0 setdash 2 copy Bsquare fill Bsquare} bind def
/D0 {gsave translate 45 rotate 0 0 S0 stroke grestore} bind def
/D1 {gsave translate 45 rotate 0 0 S1 stroke grestore} bind def
/D2 {gsave translate 45 rotate 0 0 S2 stroke grestore} bind def
/D3 {gsave translate 45 rotate 0 0 S3 stroke grestore} bind def
/D4 {gsave translate 45 rotate 0 0 S4 stroke grestore} bind def
/D5 {gsave translate 45 rotate 0 0 S5 stroke grestore} bind def
/D6 {gsave translate 45 rotate 0 0 S6 stroke grestore} bind def
/D7 {gsave translate 45 rotate 0 0 S7 stroke grestore} bind def
/D8 {gsave translate 45 rotate 0 0 S8 stroke grestore} bind def
/D9 {gsave translate 45 rotate 0 0 S9 stroke grestore} bind def
/D10 {gsave translate 45 rotate 0 0 S10 stroke grestore} bind def
/D11 {gsave translate 45 rotate 0 0 S11 stroke grestore} bind def
/D12 {gsave translate 45 rotate 0 0 S12 stroke grestore} bind def
/D13 {gsave translate 45 rotate 0 0 S13 stroke grestore} bind def
/D14 {gsave translate 45 rotate 0 0 S14 stroke grestore} bind def
/D15 {gsave translate 45 rotate 0 0 S15 stroke grestore} bind def
/DiaE {stroke [] 0 setdash vpt add M
  hpt neg vpt neg V hpt vpt neg V
  hpt vpt V hpt neg vpt V closepath stroke} def
/BoxE {stroke [] 0 setdash exch hpt sub exch vpt add M
  0 vpt2 neg V hpt2 0 V 0 vpt2 V
  hpt2 neg 0 V closepath stroke} def
/TriUE {stroke [] 0 setdash vpt 1.12 mul add M
  hpt neg vpt -1.62 mul V
  hpt 2 mul 0 V
  hpt neg vpt 1.62 mul V closepath stroke} def
/TriDE {stroke [] 0 setdash vpt 1.12 mul sub M
  hpt neg vpt 1.62 mul V
  hpt 2 mul 0 V
  hpt neg vpt -1.62 mul V closepath stroke} def
/PentE {stroke [] 0 setdash gsave
  translate 0 hpt M 4 {72 rotate 0 hpt L} repeat
  closepath stroke grestore} def
/CircE {stroke [] 0 setdash 
  hpt 0 360 arc stroke} def
/Opaque {gsave closepath 1 setgray fill grestore 0 setgray closepath} def
/DiaW {stroke [] 0 setdash vpt add M
  hpt neg vpt neg V hpt vpt neg V
  hpt vpt V hpt neg vpt V Opaque stroke} def
/BoxW {stroke [] 0 setdash exch hpt sub exch vpt add M
  0 vpt2 neg V hpt2 0 V 0 vpt2 V
  hpt2 neg 0 V Opaque stroke} def
/TriUW {stroke [] 0 setdash vpt 1.12 mul add M
  hpt neg vpt -1.62 mul V
  hpt 2 mul 0 V
  hpt neg vpt 1.62 mul V Opaque stroke} def
/TriDW {stroke [] 0 setdash vpt 1.12 mul sub M
  hpt neg vpt 1.62 mul V
  hpt 2 mul 0 V
  hpt neg vpt -1.62 mul V Opaque stroke} def
/PentW {stroke [] 0 setdash gsave
  translate 0 hpt M 4 {72 rotate 0 hpt L} repeat
  Opaque stroke grestore} def
/CircW {stroke [] 0 setdash 
  hpt 0 360 arc Opaque stroke} def
/BoxFill {gsave Rec 1 setgray fill grestore} def
/Density {
  /Fillden exch def
  currentrgbcolor
  /ColB exch def /ColG exch def /ColR exch def
  /ColR ColR Fillden mul Fillden sub 1 add def
  /ColG ColG Fillden mul Fillden sub 1 add def
  /ColB ColB Fillden mul Fillden sub 1 add def
  ColR ColG ColB setrgbcolor} def
/BoxColFill {gsave Rec PolyFill} def
/PolyFill {gsave Density fill grestore grestore} def
/h {rlineto rlineto rlineto gsave closepath fill grestore} bind def
%
% PostScript Level 1 Pattern Fill routine for rectangles
% Usage: x y w h s a XX PatternFill
%	x,y = lower left corner of box to be filled
%	w,h = width and height of box
%	  a = angle in degrees between lines and x-axis
%	 XX = 0/1 for no/yes cross-hatch
%
/PatternFill {gsave /PFa [ 9 2 roll ] def
  PFa 0 get PFa 2 get 2 div add PFa 1 get PFa 3 get 2 div add translate
  PFa 2 get -2 div PFa 3 get -2 div PFa 2 get PFa 3 get Rec
  TransparentPatterns {} {gsave 1 setgray fill grestore} ifelse
  clip
  currentlinewidth 0.5 mul setlinewidth
  /PFs PFa 2 get dup mul PFa 3 get dup mul add sqrt def
  0 0 M PFa 5 get rotate PFs -2 div dup translate
  0 1 PFs PFa 4 get div 1 add floor cvi
	{PFa 4 get mul 0 M 0 PFs V} for
  0 PFa 6 get ne {
	0 1 PFs PFa 4 get div 1 add floor cvi
	{PFa 4 get mul 0 2 1 roll M PFs 0 V} for
 } if
  stroke grestore} def
%
/languagelevel where
 {pop languagelevel} {1} ifelse
dup 2 lt
	{/InterpretLevel1 true def
	 /InterpretLevel3 false def}
	{/InterpretLevel1 Level1 def
	 2 gt
	    {/InterpretLevel3 Level3 def}
	    {/InterpretLevel3 false def}
	 ifelse }
 ifelse
%
% PostScript level 2 pattern fill definitions
%
/Level2PatternFill {
/Tile8x8 {/PaintType 2 /PatternType 1 /TilingType 1 /BBox [0 0 8 8] /XStep 8 /YStep 8}
	bind def
/KeepColor {currentrgbcolor [/Pattern /DeviceRGB] setcolorspace} bind def
<< Tile8x8
 /PaintProc {0.5 setlinewidth pop 0 0 M 8 8 L 0 8 M 8 0 L stroke} 
>> matrix makepattern
/Pat1 exch def
<< Tile8x8
 /PaintProc {0.5 setlinewidth pop 0 0 M 8 8 L 0 8 M 8 0 L stroke
	0 4 M 4 8 L 8 4 L 4 0 L 0 4 L stroke}
>> matrix makepattern
/Pat2 exch def
<< Tile8x8
 /PaintProc {0.5 setlinewidth pop 0 0 M 0 8 L
	8 8 L 8 0 L 0 0 L fill}
>> matrix makepattern
/Pat3 exch def
<< Tile8x8
 /PaintProc {0.5 setlinewidth pop -4 8 M 8 -4 L
	0 12 M 12 0 L stroke}
>> matrix makepattern
/Pat4 exch def
<< Tile8x8
 /PaintProc {0.5 setlinewidth pop -4 0 M 8 12 L
	0 -4 M 12 8 L stroke}
>> matrix makepattern
/Pat5 exch def
<< Tile8x8
 /PaintProc {0.5 setlinewidth pop -2 8 M 4 -4 L
	0 12 M 8 -4 L 4 12 M 10 0 L stroke}
>> matrix makepattern
/Pat6 exch def
<< Tile8x8
 /PaintProc {0.5 setlinewidth pop -2 0 M 4 12 L
	0 -4 M 8 12 L 4 -4 M 10 8 L stroke}
>> matrix makepattern
/Pat7 exch def
<< Tile8x8
 /PaintProc {0.5 setlinewidth pop 8 -2 M -4 4 L
	12 0 M -4 8 L 12 4 M 0 10 L stroke}
>> matrix makepattern
/Pat8 exch def
<< Tile8x8
 /PaintProc {0.5 setlinewidth pop 0 -2 M 12 4 L
	-4 0 M 12 8 L -4 4 M 8 10 L stroke}
>> matrix makepattern
/Pat9 exch def
/Pattern1 {PatternBgnd KeepColor Pat1 setpattern} bind def
/Pattern2 {PatternBgnd KeepColor Pat2 setpattern} bind def
/Pattern3 {PatternBgnd KeepColor Pat3 setpattern} bind def
/Pattern4 {PatternBgnd KeepColor Landscape {Pat5} {Pat4} ifelse setpattern} bind def
/Pattern5 {PatternBgnd KeepColor Landscape {Pat4} {Pat5} ifelse setpattern} bind def
/Pattern6 {PatternBgnd KeepColor Landscape {Pat9} {Pat6} ifelse setpattern} bind def
/Pattern7 {PatternBgnd KeepColor Landscape {Pat8} {Pat7} ifelse setpattern} bind def
} def
%
%
%End of PostScript Level 2 code
%
/PatternBgnd {
  TransparentPatterns {} {gsave 1 setgray fill grestore} ifelse
} def
%
% Substitute for Level 2 pattern fill codes with
% grayscale if Level 2 support is not selected.
%
/Level1PatternFill {
/Pattern1 {0.250 Density} bind def
/Pattern2 {0.500 Density} bind def
/Pattern3 {0.750 Density} bind def
/Pattern4 {0.125 Density} bind def
/Pattern5 {0.375 Density} bind def
/Pattern6 {0.625 Density} bind def
/Pattern7 {0.875 Density} bind def
} def
%
% Now test for support of Level 2 code
%
Level1 {Level1PatternFill} {Level2PatternFill} ifelse
%
/Symbol-Oblique /Symbol findfont [1 0 .167 1 0 0] makefont
dup length dict begin {1 index /FID eq {pop pop} {def} ifelse} forall
currentdict end definefont pop
%
/Metrics {ExtendTextBox Gswidth} def
/Lwidth {currentpoint stroke M 0 vshift R Metrics} def
/Rwidth {currentpoint stroke M dup stringwidth pop neg vshift R Metrics} def
/Cwidth {currentpoint stroke M dup stringwidth pop -2 div vshift R Metrics} def
/GLwidth {currentpoint stroke M 0 vshift R {ExtendTextBox} forall} def
/GRwidth {currentpoint stroke M dup Gwidth vshift R {ExtendTextBox} forall} def
/GCwidth {currentpoint stroke M dup Gwidth 2 div vshift R {ExtendTextBox} forall} def
/GLwidth2 {0 Gwidth AddGlyphWidth} def
/GRwidth2 {Gwidth -1 mul 0 AddGlyphWidth} def
/GCwidth2 {Gwidth 2 div dup -1 mul AddGlyphWidth} def
/AddGlyphWidth { dup TBx2 gt {userdict /TBx2 3 -1 roll put} {pop} ifelse
                 dup TBx1 lt {userdict /TBx1 3 -1 roll put} {pop} ifelse } def
/MFshow {
   { dup 5 get 3 ge
     { 5 get 3 eq {gsave} {grestore} ifelse }
     {dup dup 0 get findfont exch 1 get scalefont setfont
     [ currentpoint ] exch dup 2 get 0 exch R dup 5 get 2 ne {dup dup 6
     get exch 4 get {textshow} {Metrics pop 0 R} ifelse }if dup 5 get 0 eq
     {dup 3 get {2 get neg 0 exch R pop} {pop aload pop M} ifelse} {dup 5
     get 1 eq {dup 2 get exch dup 3 get exch 6 get Gswidth pop -2 div
     dup 0 R} {dup 6 get Gswidth pop -2 div 0 R 6 get
     textshow 2 index {aload pop M neg 3 -1 roll neg R pop pop} {pop pop pop
     pop aload pop M} ifelse }ifelse }ifelse }
     ifelse }
   forall} def
/Gswidth {dup type /stringtype eq {stringwidth} {pop (n) stringwidth} ifelse} def
/MFwidth {0 exch { dup 5 get 3 ge { 5 get 3 eq { 0 } { pop } ifelse }
 {dup 3 get{dup dup 0 get findfont exch 1 get scalefont setfont
     6 get Gswidth pop add} {pop} ifelse} ifelse} forall} def
/MLshow { currentpoint stroke M
  0 exch R
  Blacktext {gsave 0 setgray MFshow grestore} {MFshow} ifelse } bind def
/MRshow { currentpoint stroke M
  exch dup MFwidth neg 3 -1 roll R
  Blacktext {gsave 0 setgray MFshow grestore} {MFshow} ifelse } bind def
/MCshow { currentpoint stroke M
  exch dup MFwidth -2 div 3 -1 roll R
  Blacktext {gsave 0 setgray MFshow grestore} {MFshow} ifelse } bind def
/XYsave    { [( ) 1 2 true false 3 ()] } bind def
/XYrestore { [( ) 1 2 true false 4 ()] } bind def
Level1 SuppressPDFMark or 
{} {
/SDict 10 dict def
systemdict /pdfmark known not {
  userdict /pdfmark systemdict /cleartomark get put
} if
SDict begin [
  /Title (graph.eps)
  /Subject (gnuplot plot)
  /Creator (gnuplot 5.2 patchlevel 2)
%  /Producer (gnuplot)
%  /Keywords ()
  /CreationDate (Sun Jun 10 13:26:46 2018)
  /DOCINFO pdfmark
end
} ifelse
%
% Support for boxed text - Ethan A Merritt Sep 2016
%
/InitTextBox { userdict /TBy2 3 -1 roll put userdict /TBx2 3 -1 roll put
           userdict /TBy1 3 -1 roll put userdict /TBx1 3 -1 roll put
	   /Boxing true def } def
/ExtendTextBox { dup type /stringtype eq
    { Boxing { gsave dup false charpath pathbbox
      dup TBy2 gt {userdict /TBy2 3 -1 roll put} {pop} ifelse
      dup TBx2 gt {userdict /TBx2 3 -1 roll put} {pop} ifelse
      dup TBy1 lt {userdict /TBy1 3 -1 roll put} {pop} ifelse
      dup TBx1 lt {userdict /TBx1 3 -1 roll put} {pop} ifelse
      grestore } if }
    {} ifelse} def
/PopTextBox { newpath TBx1 TBxmargin sub TBy1 TBymargin sub M
               TBx1 TBxmargin sub TBy2 TBymargin add L
	       TBx2 TBxmargin add TBy2 TBymargin add L
	       TBx2 TBxmargin add TBy1 TBymargin sub L closepath } def
/DrawTextBox { PopTextBox stroke /Boxing false def} def
/FillTextBox { gsave PopTextBox fill grestore /Boxing false def} def
0 0 0 0 InitTextBox
/TBxmargin 20 def
/TBymargin 20 def
/Boxing false def
/textshow { ExtendTextBox Gshow } def
%
end
%%EndProlog
%%Page: 1 1
gnudict begin
gsave
doclip
50 50 translate
0.050 0.050 scale
0 setgray
newpath
(Helvetica) findfont 140 scalefont setfont
BackgroundColor 0 lt 3 1 roll 0 lt exch 0 lt or or not {BackgroundColor C 1.000 0 0 7200.00 5040.00 BoxColFill} if
1.000 UL
LTb
LCb setrgbcolor
1.000 UP
% Begin plot #1
1.000 UL
LTb
0.00 0.62 0.45 C 2896 1526 M
-182 -50 V
stroke
LTb
0.00 0.62 0.45 C 2625 1567 M
89 -91 V
stroke
LTb
0.00 0.62 0.45 C 2896 1526 M
182 122 V
stroke
LTb
0.00 0.62 0.45 C 3077 1648 M
1 0 V
stroke
LTb
0.00 0.62 0.45 C 3080 1648 M
-2 0 V
stroke
LTb
0.00 0.62 0.45 C 2812 1686 M
84 -160 V
stroke
LTb
0.00 0.62 0.45 C 2625 1567 M
174 121 V
stroke
LTb
0.00 0.62 0.45 C 2537 1729 M
88 -162 V
stroke
LTb
0.00 0.62 0.45 C 2506 1752 M
31 -23 V
stroke
LTb
0.00 0.62 0.45 C 2588 1729 M
-51 0 V
stroke
LTb
0.00 0.62 0.45 C 3354 1684 M
89 -55 V
stroke
LTb
0.00 0.62 0.45 C 3624 1625 M
-181 4 V
stroke
LTb
0.00 0.62 0.45 C 3172 1637 M
271 -8 V
stroke
LTb
0.00 0.62 0.45 C 3806 1682 M
-59 157 V
stroke
LTb
0.00 0.62 0.45 C 3536 1807 M
69 43 V
stroke
LTb
0.00 0.62 0.45 C 3637 2930 M
-37 109 V
stroke
LTb
0.00 0.62 0.45 C 3083 1753 M
89 -116 V
stroke
LTb
0.00 0.62 0.45 C 2901 1671 M
271 -34 V
stroke
LTb
0.00 0.62 0.45 C 3354 1684 M
-182 -47 V
stroke
LTb
0.00 0.62 0.45 C 3354 1684 M
-68 169 V
stroke
LTb
0.00 0.62 0.45 C 3083 1753 M
130 108 V
stroke
LTb
0.00 0.62 0.45 C 3806 1682 M
-182 -57 V
stroke
LTb
0.00 0.62 0.45 C 3536 1807 M
88 -182 V
stroke
LTb
0.00 0.62 0.45 C 3354 1684 M
182 123 V
stroke
LTb
0.00 0.62 0.45 C 3511 1857 M
25 -50 V
stroke
LTb
0.00 0.62 0.45 C 3988 1767 M
-43 105 V
stroke
LTb
0.00 0.62 0.45 C 3988 1767 M
-182 -85 V
stroke
LTb
0.00 0.62 0.45 C 2812 1794 M
129 118 V
stroke
LTb
0.00 0.62 0.45 C 3083 1753 M
-58 136 V
stroke
LTb
0.00 0.62 0.45 C 4170 1844 M
-182 -77 V
stroke
LTb
0.00 0.62 0.45 C 4134 1914 M
36 -70 V
stroke
LTb
0.00 0.62 0.45 C 4352 1903 M
-182 -59 V
stroke
LTb
0.00 0.62 0.45 C 3637 2930 M
139 82 V
stroke
LTb
0.00 0.62 0.45 C 3908 2659 M
-82 348 V
stroke
LTb
0.00 0.62 0.45 C 2630 1718 M
271 -47 V
stroke
LTb
0.00 0.62 0.45 C 2812 1794 M
89 -123 V
stroke
LTb
0.00 0.62 0.45 C 3083 1753 M
-182 -82 V
stroke
LTb
0.00 0.62 0.45 C 3456 2741 M
-83 280 V
stroke
LTb
0.00 0.62 0.45 C 3185 2781 M
167 237 V
stroke
LTb
0.00 0.62 0.45 C 3726 2542 M
-89 388 V
stroke
LTb
0.00 0.62 0.45 C 3456 2741 M
181 189 V
stroke
LTb
0.00 0.62 0.45 C 4534 1941 M
-182 -38 V
stroke
LTb
0.00 0.62 0.45 C 4320 1954 M
32 -51 V
stroke
LTb
0.00 0.62 0.45 C 2359 1792 M
271 -74 V
stroke
LTb
0.00 0.62 0.45 C 2812 1794 M
-182 -76 V
stroke
LTb
0.00 0.62 0.45 C 2541 1806 M
89 -88 V
stroke
LTb
0.00 0.62 0.45 C 4090 2698 M
-68 290 V
stroke
LTb
0.00 0.62 0.45 C 2541 1806 M
178 175 V
stroke
LTb
0.00 0.62 0.45 C 2812 1794 M
-86 186 V
stroke
LTb
0.00 0.62 0.45 C 2541 1806 M
-182 -14 V
stroke
LTb
0.00 0.62 0.45 C 2270 1828 M
89 -36 V
stroke
LTb
0.00 0.62 0.45 C 4717 1960 M
-183 -19 V
stroke
LTb
0.00 0.62 0.45 C 4502 1993 M
32 -52 V
stroke
LTb
0.00 0.62 0.45 C 3274 2465 M
182 276 V
stroke
LTb
0.00 0.62 0.45 C 3545 2349 M
-89 392 V
stroke
LTb
0.00 0.62 0.45 C 2452 1970 M
103 77 V
stroke
LTb
0.00 0.62 0.45 C 3185 2781 M
-75 196 V
stroke
LTb
0.00 0.62 0.45 C 2914 2663 M
160 306 V
stroke
LTb
0.00 0.62 0.45 C 2452 1970 M
89 -164 V
stroke
LTb
0.00 0.62 0.45 C 4670 2050 M
47 -90 V
stroke
LTb
0.00 0.62 0.45 C 4899 1960 M
-182 0 V
stroke
LTb
0.00 0.62 0.45 C 2825 2822 M
57 105 V
stroke
LTb
0.00 0.62 0.45 C 2270 1828 M
182 142 V
stroke
LTb
0.00 0.62 0.45 C 2363 2121 M
89 -151 V
stroke
LTb
0.00 0.62 0.45 C 4272 2657 M
-67 294 V
stroke
LTb
0.00 0.62 0.45 C 3003 2430 M
182 351 V
stroke
LTb
0.00 0.62 0.45 C 3274 2465 M
-89 316 V
stroke
LTb
0.00 0.62 0.45 C 3726 2542 M
182 117 V
stroke
LTb
0.00 0.62 0.45 C 4090 2698 M
-182 -39 V
stroke
LTb
0.00 0.62 0.45 C 3997 2211 M
-89 448 V
stroke
LTb
0.00 0.62 0.45 C 2325 2167 M
38 -46 V
stroke
LTb
0.00 0.62 0.45 C 2300 2196 M
24 -28 V
stroke
LTb
0.00 0.62 0.45 C 2422 2127 M
-59 -6 V
stroke
LTb
0.00 0.62 0.45 C 2181 1926 M
182 195 V
stroke
LTb
0.00 0.62 0.45 C 4899 1960 M
-73 178 V
stroke
LTb
0.00 0.62 0.45 C 2181 1926 M
89 -98 V
stroke
LTb
0.00 0.62 0.45 C 3545 2349 M
181 193 V
stroke
LTb
0.00 0.62 0.45 C 3815 2114 M
-89 428 V
stroke
LTb
0.00 0.62 0.45 C 5081 1953 M
-182 7 V
stroke
LTb
0.00 0.62 0.45 C 4179 2249 M
-89 449 V
stroke
LTb
0.00 0.62 0.45 C 4272 2657 M
-182 41 V
stroke
LTb
0.00 0.62 0.45 C 2092 2051 M
175 168 V
stroke
LTb
0.00 0.62 0.45 C 5174 2156 M
-182 33 V
stroke
LTb
0.00 0.62 0.45 C 4854 2159 M
138 30 V
stroke
LTb
0.00 0.62 0.45 C 5081 1953 M
-89 236 V
stroke
LTb
0.00 0.62 0.45 C 4939 2223 M
53 -34 V
stroke
LTb
0.00 0.62 0.45 C 2092 2051 M
89 -125 V
stroke
LTb
0.00 0.62 0.45 C 3092 2156 M
182 309 V
stroke
LTb
0.00 0.62 0.45 C 3363 2116 M
-89 349 V
stroke
LTb
0.00 0.62 0.45 C 3363 2116 M
182 233 V
stroke
LTb
0.00 0.62 0.45 C 3633 1982 M
-88 367 V
stroke
LTb
0.00 0.62 0.45 C 5263 1973 M
-182 -20 V
stroke
LTb
0.00 0.62 0.45 C 3269 1853 M
271 5 V
stroke
LTb
0.00 0.62 0.45 C 3722 1835 M
-182 23 V
stroke
LTb
0.00 0.62 0.45 C 3452 1871 M
88 -13 V
stroke
LTb
0.00 0.62 0.45 C 2004 2169 M
88 -118 V
stroke
LTb
0.00 0.62 0.45 C 4548 2735 M
-171 187 V
stroke
LTb
0.00 0.62 0.45 C 4455 2542 M
-87 381 V
stroke
LTb
0.00 0.62 0.45 C 4361 2230 M
-89 427 V
stroke
LTb
0.00 0.62 0.45 C 4455 2542 M
-183 115 V
stroke
LTb
0.00 0.62 0.45 C 3904 1863 M
271 60 V
stroke
LTb
0.00 0.62 0.45 C 4357 1962 M
-182 -39 V
stroke
LTb
0.00 0.62 0.45 C 4086 1908 M
89 15 V
stroke
LTb
0.00 0.62 0.45 C 2732 2276 M
182 387 V
stroke
LTb
0.00 0.62 0.45 C 2825 2822 M
89 -159 V
stroke
LTb
0.00 0.62 0.45 C 3003 2430 M
-89 233 V
stroke
LTb
0.00 0.62 0.45 C 5445 2055 M
162 107 V
stroke
LTb
0.00 0.62 0.45 C 2004 2169 M
176 128 V
stroke
LTb
0.00 0.62 0.45 C 5445 2055 M
-182 -82 V
stroke
LTb
0.00 0.62 0.45 C 5174 2156 M
89 -183 V
stroke
LTb
0.00 0.62 0.45 C 2745 2893 M
80 -71 V
stroke
LTb
0.00 0.62 0.45 C 2643 2414 M
182 408 V
stroke
LTb
0.00 0.62 0.45 C 5356 2110 M
-182 46 V
stroke
LTb
0.00 0.62 0.45 C 5100 2304 M
74 -148 V
stroke
LTb
0.00 0.62 0.45 C 5356 2110 M
89 -55 V
stroke
LTb
0.00 0.62 0.45 C 4909 2200 M
123 93 V
stroke
LTb
0.00 0.62 0.45 C 4814 2129 M
95 71 V
stroke
LTb
0.00 0.62 0.45 C 5720 2270 M
89 -41 V
stroke
LTb
0.00 0.62 0.45 C 5538 2140 M
271 89 V
stroke
LTb
0.00 0.62 0.45 C 5991 2184 M
-182 45 V
stroke
LTb
0.00 0.62 0.45 C 1915 2269 M
89 -100 V
stroke
LTb
0.00 0.62 0.45 C 4268 1947 M
89 15 V
stroke
LTb
0.00 0.62 0.45 C 4361 1963 M
-4 -1 V
stroke
LTb
0.00 0.62 0.45 C 2821 2104 M
182 326 V
stroke
LTb
0.00 0.62 0.45 C 3092 2156 M
-89 274 V
stroke
LTb
0.58 0.00 0.83 C 3651 3705 M
88 -4 V
stroke
LTb
0.58 0.00 0.83 C 3914 3666 M
-175 35 V
stroke
LTb
0.00 0.62 0.45 C 3181 1927 M
88 -74 V
stroke
LTb
0.00 0.62 0.45 C 3452 1871 M
-183 -18 V
stroke
LTb
0.00 0.62 0.45 C 2999 1893 M
270 -40 V
stroke
LTb
0.00 0.62 0.45 C 3815 2114 M
182 97 V
stroke
LTb
0.00 0.62 0.45 C 4179 2249 M
-182 -38 V
stroke
LTb
0.00 0.62 0.45 C 4086 1908 M
-89 303 V
stroke
LTb
0.58 0.00 0.83 C 2953 3461 M
152 128 V
stroke
LTb
0.58 0.00 0.83 C 3016 3486 M
89 103 V
stroke
LTb
0.58 0.00 0.83 C 3287 3671 M
-182 -82 V
stroke
LTb
0.00 0.62 0.45 C 3633 1982 M
182 132 V
stroke
LTb
0.00 0.62 0.45 C 3904 1863 M
-89 251 V
stroke
LTb
0.00 0.62 0.45 C 3452 1871 M
-89 245 V
stroke
LTb
0.00 0.62 0.45 C 3181 1927 M
182 189 V
stroke
LTb
0.00 0.62 0.45 C 3904 1863 M
-182 -28 V
stroke
LTb
0.00 0.62 0.45 C 3633 1982 M
89 -147 V
stroke
LTb
0.58 0.00 0.83 C 3199 3593 M
88 78 V
stroke
LTb
0.58 0.00 0.83 C 3469 3710 M
-182 -39 V
stroke
LTb
0.00 0.62 0.45 C 1915 2269 M
182 102 V
stroke
LTb
0.00 0.62 0.45 C 3452 1871 M
181 111 V
stroke
LTb
0.00 0.62 0.45 C 5009 2289 M
258 41 V
stroke
LTb
0.00 0.62 0.45 C 5200 2411 M
67 -81 V
stroke
LTb
0.00 0.62 0.45 C 5356 2110 M
-89 220 V
stroke
LTb
0.00 0.62 0.45 C 5450 2256 M
-183 74 V
stroke
LTb
0.00 0.62 0.45 C 4361 2230 M
-182 19 V
stroke
LTb
0.00 0.62 0.45 C 4268 1947 M
-89 302 V
stroke
LTb
0.00 0.62 0.45 C 3181 1927 M
-182 -34 V
stroke
LTb
0.00 0.62 0.45 C 2910 1953 M
89 -60 V
stroke
LTb
0.00 0.62 0.45 C 2728 1980 M
271 -87 V
stroke
LTb
0.00 0.62 0.45 C 1826 2348 M
89 -79 V
stroke
LTb
0.00 0.62 0.45 C 2713 2848 M
19 43 V
stroke
LTb
0.00 0.62 0.45 C 2554 2493 M
159 354 V
stroke
LTb
0.00 0.62 0.45 C 2639 1998 M
89 -18 V
stroke
LTb
0.00 0.62 0.45 C 2910 1953 M
-182 27 V
stroke
LTb
0.00 0.62 0.45 C 3181 1927 M
-89 229 V
stroke
LTb
0.00 0.62 0.45 C 2910 1953 M
182 203 V
stroke
LTb
0.58 0.00 0.83 C 3651 3705 M
-182 5 V
stroke
LTb
0.58 0.00 0.83 C 3381 3632 M
88 78 V
stroke
LTb
0.00 0.62 0.45 C 4641 2778 M
-31 46 V
stroke
LTb
0.00 0.62 0.45 C 4548 2735 M
-37 133 V
stroke
LTb
0.00 0.62 0.45 C 4086 1908 M
-182 -45 V
stroke
LTb
0.00 0.62 0.45 C 5538 2140 M
-182 -30 V
stroke
LTb
0.00 0.62 0.45 C 6174 2212 M
-183 -28 V
stroke
LTb
0.00 0.62 0.45 C 5903 2352 M
88 -168 V
stroke
LTb
0.58 0.00 0.83 C 3833 3630 M
63 24 V
stroke
LTb
0.00 0.62 0.45 C 5632 2252 M
88 18 V
stroke
LTb
0.00 0.62 0.45 C 5903 2352 M
-183 -82 V
stroke
LTb
0.00 0.62 0.45 C 5538 2140 M
182 130 V
stroke
LTb
0.00 0.62 0.45 C 6085 2302 M
-182 50 V
stroke
LTb
0.00 0.62 0.45 C 5814 2388 M
89 -36 V
stroke
LTb
0.00 0.62 0.45 C 4268 1947 M
-182 -39 V
stroke
LTb
0.00 0.62 0.45 C 4637 2387 M
-182 155 V
stroke
LTb
0.00 0.62 0.45 C 4543 2176 M
-88 366 V
stroke
LTb
0.00 0.62 0.45 C 4908 2201 M
211 184 V
stroke
LTb
0.00 0.62 0.45 C 5450 2256 M
88 -116 V
stroke
LTb
0.00 0.62 0.45 C 2190 2287 M
-182 163 V
stroke
LTb
0.00 0.62 0.45 C 1919 2539 M
89 -89 V
stroke
LTb
0.00 0.62 0.45 C 1826 2348 M
182 102 V
stroke
LTb
0.00 0.62 0.45 C 1737 2408 M
89 -60 V
stroke
LTb
0.58 0.00 0.83 C 3833 3630 M
-182 75 V
stroke
LTb
0.58 0.00 0.83 C 3563 3602 M
88 103 V
stroke
LTb
0.00 0.62 0.45 C 2639 1998 M
-271 161 V
stroke
LTb
0.00 0.62 0.45 C 2279 2208 M
89 -49 V
stroke
LTb
0.00 0.62 0.45 C 2550 2066 M
-182 93 V
stroke
LTb
0.00 0.62 0.45 C 6085 2302 M
89 -90 V
stroke
LTb
0.00 0.62 0.45 C 4543 2176 M
-182 54 V
stroke
LTb
0.00 0.62 0.45 C 4450 1979 M
-89 251 V
stroke
LTb
0.00 0.62 0.45 C 4450 1979 M
-182 -32 V
stroke
LTb
0.00 0.62 0.45 C 2821 2104 M
89 -151 V
stroke
LTb
0.00 0.62 0.45 C 4814 2129 M
77 67 V
stroke
LTb
0.00 0.62 0.45 C 5450 2256 M
-89 208 V
stroke
LTb
0.00 0.62 0.45 C 5286 2540 M
75 -76 V
stroke
LTb
0.00 0.62 0.45 C 5543 2375 M
-182 89 V
stroke
LTb
0.00 0.62 0.45 C 5090 2375 M
271 89 V
stroke
LTb
0.00 0.62 0.45 C 4637 2387 M
-89 348 V
stroke
LTb
0.00 0.62 0.45 C 4730 2505 M
-182 230 V
stroke
LTb
0.00 0.62 0.45 C 2732 2276 M
89 -172 V
stroke
LTb
0.00 0.62 0.45 C 2639 1998 M
182 106 V
stroke
LTb
0.00 0.62 0.45 C 5632 2252 M
-182 4 V
stroke
LTb
0.00 0.62 0.45 C 2550 2066 M
182 210 V
stroke
LTb
0.00 0.62 0.45 C 2643 2414 M
89 -138 V
stroke
LTb
0.00 0.62 0.45 C 2550 2066 M
89 -68 V
stroke
LTb
0.00 0.62 0.45 C 4632 2029 M
-182 -50 V
stroke
LTb
0.00 0.62 0.45 C 2466 2514 M
148 314 V
stroke
LTb
0.00 0.62 0.45 C 2101 2397 M
-182 142 V
stroke
LTb
0.00 0.62 0.45 C 1737 2408 M
182 131 V
stroke
LTb
0.00 0.62 0.45 C 1830 2622 M
89 -83 V
stroke
LTb
0.00 0.62 0.45 C 5996 2465 M
89 -163 V
stroke
LTb
0.00 0.62 0.45 C 4632 2029 M
182 100 V
stroke
LTb
0.00 0.62 0.45 C 4725 2142 M
89 -13 V
stroke
LTb
0.00 0.62 0.45 C 5632 2252 M
182 136 V
stroke
LTb
0.00 0.62 0.45 C 5996 2465 M
-182 -77 V
stroke
LTb
0.00 0.62 0.45 C 5725 2376 M
89 12 V
stroke
LTb
0.00 0.62 0.45 C 4543 2176 M
89 -147 V
stroke
LTb
0.00 0.62 0.45 C 2461 2152 M
182 262 V
stroke
LTb
0.00 0.62 0.45 C 2554 2493 M
89 -79 V
stroke
LTb
0.00 0.62 0.45 C 5907 2530 M
89 -65 V
stroke
LTb
0.58 0.00 0.83 C 3381 3632 M
-182 -39 V
stroke
LTb
0.58 0.00 0.83 C 3159 3495 M
40 98 V
stroke
LTb
0.58 0.00 0.83 C 3016 3486 M
183 107 V
stroke
LTb
0.00 0.62 0.45 C 1648 2448 M
89 -40 V
stroke
LTb
0.00 0.62 0.45 C 5090 2375 M
161 159 V
stroke
LTb
0.58 0.00 0.83 C 2998 3467 M
18 19 V
stroke
LTb
0.58 0.00 0.83 C 3009 3468 M
7 18 V
stroke
LTb
0.00 0.62 0.45 C 2461 2152 M
-182 56 V
stroke
LTb
0.00 0.62 0.45 C 2190 2287 M
89 -79 V
stroke
LTb
0.00 0.62 0.45 C 4725 2142 M
-182 34 V
stroke
LTb
0.00 0.62 0.45 C 5543 2375 M
89 -123 V
stroke
LTb
0.58 0.00 0.83 C 3814 3600 M
19 30 V
stroke
LTb
0.58 0.00 0.83 C 3843 3619 M
-10 11 V
stroke
LTb
0.58 0.00 0.83 C 3338 3527 M
43 105 V
stroke
LTb
0.58 0.00 0.83 C 3563 3602 M
-182 30 V
stroke
LTb
0.00 0.62 0.45 C 2461 2152 M
89 -86 V
stroke
LTb
0.00 0.62 0.45 C 2012 2537 M
-182 85 V
stroke
LTb
0.00 0.62 0.45 C 1742 2676 M
88 -54 V
stroke
LTb
0.00 0.62 0.45 C 1648 2448 M
182 174 V
stroke
LTb
0.00 0.62 0.45 C 5636 2465 M
-182 102 V
stroke
LTb
0.00 0.62 0.45 C 5183 2523 M
271 44 V
stroke
LTb
0.00 0.62 0.45 C 5365 2686 M
89 -119 V
stroke
LTb
0.00 0.62 0.45 C 5543 2375 M
-89 192 V
stroke
LTb
0.00 0.62 0.45 C 4819 2276 M
-182 111 V
stroke
LTb
0.00 0.62 0.45 C 4725 2142 M
-88 245 V
stroke
LTb
0.00 0.62 0.45 C 5725 2376 M
-182 -1 V
stroke
LTb
0.00 0.62 0.45 C 2466 2514 M
88 -21 V
stroke
LTb
0.00 0.62 0.45 C 2372 2232 M
182 261 V
stroke
LTb
0.00 0.62 0.45 C 5001 2319 M
89 56 V
stroke
LTb
0.00 0.62 0.45 C 5019 2307 M
71 68 V
stroke
LTb
0.00 0.62 0.45 C 4908 2201 M
111 106 V
stroke
LTb
0.00 0.62 0.45 C 4641 2778 M
-15 39 V
stroke
LTb
0.00 0.62 0.45 C 5818 2528 M
89 2 V
stroke
LTb
0.00 0.62 0.45 C 5725 2376 M
182 154 V
stroke
LTb
0.00 0.62 0.45 C 2101 2397 M
89 -110 V
stroke
LTb
0.00 0.62 0.45 C 2372 2232 M
-182 55 V
stroke
LTb
0.00 0.62 0.45 C 5276 2718 M
89 -32 V
stroke
LTb
0.00 0.62 0.45 C 5547 2627 M
-182 59 V
stroke
LTb
0.00 0.62 0.45 C 5183 2523 M
182 163 V
stroke
LTb
0.00 0.62 0.45 C 4908 2201 M
-183 -59 V
stroke
LTb
0.00 0.62 0.45 C 1559 2482 M
89 -34 V
stroke
LTb
0.00 0.62 0.45 C 4823 2530 M
-182 248 V
stroke
LTb
0.00 0.62 0.45 C 4730 2505 M
-89 273 V
stroke
LTb
0.00 0.62 0.45 C 2372 2232 M
89 -80 V
stroke
LTb
0.58 0.00 0.83 C 3681 3528 M
-118 74 V
stroke
LTb
0.58 0.00 0.83 C 3537 3535 M
26 67 V
stroke
LTb
0.00 0.62 0.45 C 4819 2276 M
89 -75 V
stroke
LTb
0.00 0.62 0.45 C 5636 2465 M
89 -89 V
stroke
LTb
0.00 0.62 0.45 C 1559 2482 M
183 194 V
stroke
LTb
0.00 0.62 0.45 C 1653 2683 M
89 -7 V
stroke
LTb
0.00 0.62 0.45 C 1924 2693 M
-182 -17 V
stroke
LTb
0.00 0.62 0.45 C 2283 2304 M
-182 93 V
stroke
LTb
0.00 0.62 0.45 C 2012 2537 M
89 -140 V
stroke
LTb
0.00 0.62 0.45 C 2377 2501 M
155 278 V
stroke
LTb
0.00 0.62 0.45 C 2470 2711 M
44 56 V
stroke
LTb
0.00 0.62 0.45 C 5001 2319 M
182 204 V
stroke
LTb
0.00 0.62 0.45 C 5094 2483 M
89 40 V
stroke
LTb
0.00 0.62 0.45 C 2195 2395 M
-183 142 V
stroke
LTb
0.00 0.62 0.45 C 1924 2693 M
88 -156 V
stroke
LTb
0.00 0.62 0.45 C 4912 2379 M
-182 126 V
stroke
LTb
0.00 0.62 0.45 C 4819 2276 M
-89 229 V
stroke
LTb
0.00 0.62 0.45 C 2377 2501 M
89 13 V
stroke
LTb
0.00 0.62 0.45 C 2283 2304 M
183 210 V
stroke
LTb
0.00 0.62 0.45 C 2283 2304 M
89 -72 V
stroke
LTb
0.00 0.62 0.45 C 1837 2816 M
87 -123 V
stroke
LTb
0.00 0.62 0.45 C 2106 2536 M
-182 157 V
stroke
LTb
0.00 0.62 0.45 C 5547 2627 M
89 -162 V
stroke
LTb
0.00 0.62 0.45 C 5818 2528 M
-182 -63 V
stroke
LTb
0.00 0.62 0.45 C 5001 2319 M
-182 -43 V
stroke
LTb
0.00 0.62 0.45 C 5729 2564 M
-182 63 V
stroke
LTb
0.00 0.62 0.45 C 5458 2778 M
89 -151 V
stroke
LTb
0.00 0.62 0.45 C 1471 2542 M
88 -60 V
stroke
LTb
0.00 0.62 0.45 C 2470 2711 M
28 47 V
stroke
LTb
0.00 0.62 0.45 C 5094 2483 M
182 235 V
stroke
LTb
0.00 0.62 0.45 C 5188 2720 M
88 -2 V
stroke
LTb
0.00 0.62 0.45 C 5458 2778 M
-182 -60 V
stroke
LTb
0.00 0.62 0.45 C 5729 2564 M
89 -36 V
stroke
LTb
0.00 0.62 0.45 C 1653 2683 M
180 135 V
stroke
LTb
0.00 0.62 0.45 C 5370 2884 M
88 -106 V
stroke
LTb
0.00 0.62 0.45 C 5641 2661 M
-183 117 V
stroke
LTb
0.00 0.62 0.45 C 4912 2379 M
89 -60 V
stroke
LTb
0.00 0.62 0.45 C 1564 2679 M
89 4 V
stroke
LTb
0.00 0.62 0.45 C 1471 2542 M
182 141 V
stroke
LTb
0.00 0.62 0.45 C 2195 2395 M
88 -91 V
stroke
LTb
0.00 0.62 0.45 C 5281 2958 M
89 -74 V
stroke
LTb
0.00 0.62 0.45 C 5552 2786 M
-182 98 V
stroke
LTb
0.00 0.62 0.45 C 5188 2720 M
182 164 V
stroke
LTb
0.00 0.62 0.45 C 1382 2664 M
89 -122 V
stroke
LTb
0.00 0.62 0.45 C 4912 2379 M
182 104 V
stroke
LTb
0.00 0.62 0.45 C 5005 2501 M
89 -18 V
stroke
LTb
0.00 0.62 0.45 C 5641 2661 M
88 -97 V
stroke
LTb
0.00 0.62 0.45 C 2288 2508 M
89 -7 V
stroke
LTb
0.00 0.62 0.45 C 2195 2395 M
182 106 V
stroke
LTb
0.00 0.62 0.45 C 4823 2530 M
89 -151 V
stroke
LTb
0.00 0.62 0.45 C 1564 2679 M
181 178 V
stroke
LTb
0.00 0.62 0.45 C 2017 2734 M
-270 124 V
stroke
LTb
0.00 0.62 0.45 C 2106 2536 M
89 -141 V
stroke
LTb
0.00 0.62 0.45 C 5005 2501 M
183 219 V
stroke
LTb
0.00 0.62 0.45 C 5099 2738 M
89 -18 V
stroke
LTb
0.00 0.62 0.45 C 1293 2826 M
89 -162 V
stroke
LTb
0.00 0.62 0.45 C 1564 2679 M
-182 -15 V
stroke
LTb
0.00 0.62 0.45 C 4734 2701 M
89 -171 V
stroke
LTb
0.00 0.62 0.45 C 5005 2501 M
-182 29 V
stroke
LTb
0.00 0.62 0.45 C 2110 2821 M
-182 103 V
stroke
LTb
0.00 0.62 0.45 C 1657 2825 M
271 99 V
stroke
LTb
0.00 0.62 0.45 C 1854 2981 M
74 -57 V
stroke
LTb
0.00 0.62 0.45 C 2017 2734 M
-89 190 V
stroke
LTb
0.00 0.62 0.45 C 2106 2536 M
-89 198 V
stroke
LTb
0.00 0.62 0.45 C 2199 2607 M
-182 127 V
stroke
LTb
0.00 0.62 0.45 C 4689 2772 M
45 -71 V
stroke
LTb
0.00 0.62 0.45 C 4917 2570 M
-183 131 V
stroke
LTb
0.00 0.62 0.45 C 1475 2749 M
-182 77 V
stroke
LTb
0.00 0.62 0.45 C 1206 2917 M
87 -91 V
stroke
LTb
0.00 0.62 0.45 C 2288 2508 M
-182 28 V
stroke
LTb
0.00 0.62 0.45 C 5192 3028 M
89 -70 V
stroke
LTb
0.00 0.62 0.45 C 5463 2904 M
-182 54 V
stroke
LTb
0.00 0.62 0.45 C 5099 2738 M
182 220 V
stroke
LTb
0.00 0.62 0.45 C 2381 2641 M
89 70 V
stroke
LTb
0.00 0.62 0.45 C 2288 2508 M
182 203 V
stroke
LTb
0.00 0.62 0.45 C 5552 2786 M
89 -125 V
stroke
LTb
0.00 0.62 0.45 C 1475 2749 M
89 -70 V
stroke
LTb
0.00 0.62 0.45 C 5463 2904 M
89 -118 V
stroke
LTb
0.00 0.62 0.45 C 1657 2825 M
153 140 V
stroke
LTb
0.00 0.62 0.45 C 4917 2570 M
88 -69 V
stroke
LTb
0.00 0.62 0.45 C 2199 2607 M
89 -99 V
stroke
LTb
0.00 0.62 0.45 C 5010 2788 M
182 240 V
stroke
LTb
0.00 0.62 0.45 C 5103 3107 M
89 -79 V
stroke
LTb
0.00 0.62 0.45 C 5374 3003 M
-182 25 V
stroke
LTb
0.00 0.62 0.45 C 5010 2788 M
89 -50 V
stroke
LTb
0.00 0.62 0.45 C 4917 2570 M
182 168 V
stroke
LTb
0.00 0.62 0.45 C 1946 3086 M
75 -44 V
stroke
LTb
0.00 0.62 0.45 C 2110 2821 M
-89 221 V
stroke
LTb
0.00 0.62 0.45 C 2204 2970 M
-183 72 V
stroke
LTb
0.00 0.62 0.45 C 1750 2943 M
271 99 V
stroke
LTb
0.00 0.62 0.45 C 5374 3003 M
89 -99 V
stroke
LTb
0.00 0.62 0.45 C 1386 2919 M
89 -170 V
stroke
LTb
0.00 0.62 0.45 C 1657 2825 M
-182 -76 V
stroke
LTb
0.00 0.62 0.45 C 2381 2641 M
109 112 V
stroke
LTb
0.00 0.62 0.45 C 2199 2607 M
-89 214 V
stroke
LTb
0.00 0.62 0.45 C 2292 2725 M
-182 96 V
stroke
LTb
0.00 0.62 0.45 C 1568 2861 M
-182 58 V
stroke
LTb
0.00 0.62 0.45 C 1303 3035 M
83 -116 V
stroke
LTb
0.00 0.62 0.45 C 1115 2915 M
271 4 V
stroke
LTb
0.00 0.62 0.45 C 1568 2861 M
89 -36 V
stroke
LTb
0.00 0.62 0.45 C 2381 2641 M
-182 -34 V
stroke
LTb
0.00 0.62 0.45 C 4828 2654 M
89 -84 V
stroke
LTb
0.00 0.62 0.45 C 5014 3196 M
89 -89 V
stroke
LTb
0.00 0.62 0.45 C 4921 2867 M
182 240 V
stroke
LTb
0.00 0.62 0.45 C 5285 3083 M
-182 24 V
stroke
LTb
0.00 0.62 0.45 C 5285 3083 M
89 -80 V
stroke
LTb
0.00 0.62 0.45 C 1115 2915 M
171 120 V
stroke
LTb
0.00 0.62 0.45 C 2292 2725 M
89 -84 V
stroke
LTb
0.00 0.62 0.45 C 1750 2943 M
134 111 V
stroke
LTb
0.00 0.62 0.45 C 4828 2654 M
182 134 V
stroke
LTb
0.00 0.62 0.45 C 4921 2867 M
89 -79 V
stroke
LTb
0.00 0.62 0.45 C 1026 2983 M
89 -68 V
stroke
LTb
0.00 0.62 0.45 C 1844 3033 M
240 125 V
stroke
LTb
0.00 0.62 0.45 C 2204 2970 M
-83 189 V
stroke
LTb
0.00 0.62 0.45 C 2386 2889 M
-182 81 V
stroke
LTb
0.00 0.62 0.45 C 2292 2725 M
-88 245 V
stroke
LTb
0.00 0.62 0.45 C 4739 2734 M
-107 81 V
stroke
LTb
0.00 0.62 0.45 C 4739 2734 M
89 -80 V
stroke
LTb
0.00 0.62 0.45 C 5196 3142 M
-182 54 V
stroke
LTb
0.00 0.62 0.45 C 4832 2976 M
182 220 V
stroke
LTb
0.00 0.62 0.45 C 4968 3240 M
46 -44 V
stroke
LTb
0.00 0.62 0.45 C 1480 3037 M
88 -176 V
stroke
LTb
0.00 0.62 0.45 C 1750 2943 M
-182 -82 V
stroke
LTb
0.00 0.62 0.45 C 1209 3033 M
271 4 V
stroke
LTb
0.00 0.62 0.45 C 1391 3155 M
89 -118 V
stroke
LTb
0.00 0.62 0.45 C 1662 2985 M
-182 52 V
stroke
LTb
0.00 0.62 0.45 C 1662 2985 M
88 -42 V
stroke
LTb
0.00 0.62 0.45 C 5196 3142 M
89 -59 V
stroke
LTb
0.00 0.62 0.45 C 2475 2744 M
-183 -19 V
stroke
LTb
0.00 0.62 0.45 C 2657 2855 M
44 31 V
stroke
LTb
0.00 0.62 0.45 C 4832 2976 M
89 -109 V
stroke
LTb
0.00 0.62 0.45 C 4739 2734 M
182 133 V
stroke
LTb
0.00 0.62 0.45 C 2386 2889 M
-89 276 V
stroke
LTb
0.00 0.62 0.45 C 2479 3127 M
-182 38 V
stroke
LTb
0.00 0.62 0.45 C 2026 3156 M
271 9 V
stroke
LTb
0.00 0.62 0.45 C 2230 3241 M
67 -76 V
stroke
LTb
0.00 0.62 0.45 C 1209 3033 M
-183 -50 V
stroke
LTb
0.00 0.62 0.45 C 1573 3180 M
-182 -25 V
stroke
LTb
0.00 0.62 0.45 C 1209 3033 M
182 122 V
stroke
LTb
0.00 0.62 0.45 C 2568 2866 M
89 -11 V
stroke
LTb
0.00 0.62 0.45 C 2475 2744 M
182 111 V
stroke
LTb
0.00 0.62 0.45 C 4650 2807 M
89 -73 V
stroke
LTb
0.00 0.62 0.45 C 4743 3117 M
167 150 V
stroke
LTb
0.58 0.00 0.83 C 5196 3142 M
-185 95 V
stroke
LTb
0.00 0.62 0.45 C 2386 2889 M
89 -145 V
stroke
LTb
0.00 0.62 0.45 C 4650 2807 M
182 169 V
stroke
LTb
0.00 0.62 0.45 C 4743 3117 M
89 -141 V
stroke
LTb
0.58 0.00 0.83 C 2119 3190 M
89 76 V
stroke
LTb
0.58 0.00 0.83 C 1937 3132 M
271 134 V
stroke
LTb
0.58 0.00 0.83 C 2390 3331 M
-182 -65 V
stroke
LTb
0.00 0.62 0.45 C 2026 3156 M
15 9 V
stroke
LTb
0.00 0.62 0.45 C 1662 2985 M
-89 195 V
stroke
LTb
0.00 0.62 0.45 C 1755 3137 M
-182 43 V
stroke
LTb
0.58 0.00 0.83 C 5108 3183 M
88 -41 V
stroke
LTb
0.00 0.62 0.45 C 2568 2866 M
-182 23 V
stroke
LTb
0.00 0.62 0.45 C 1844 3033 M
-182 -48 V
stroke
LTb
0.00 0.62 0.45 C 1844 3033 M
182 123 V
stroke
LTb
0.58 0.00 0.83 C 1755 3137 M
223 15 V
stroke
LTb
0.00 0.62 0.45 C 1937 3132 M
89 24 V
stroke
LTb
0.58 0.00 0.83 C 2301 3274 M
89 57 V
stroke
LTb
0.00 0.62 0.45 C 2479 3127 M
-79 180 V
stroke
LTb
0.58 0.00 0.83 C 2470 3346 M
-80 -15 V
stroke
LTb
0.00 0.62 0.45 C 4561 2897 M
182 220 V
stroke
LTb
0.00 0.62 0.45 C 4655 3274 M
88 -157 V
stroke
LTb
0.00 0.62 0.45 C 4650 2807 M
-255 112 V
stroke
LTb
0.00 0.62 0.45 C 2661 3104 M
-182 23 V
stroke
LTb
0.00 0.62 0.45 C 2568 2866 M
-89 261 V
stroke
LTb
0.00 0.62 0.45 C 1755 3137 M
89 -104 V
stroke
LTb
0.00 0.62 0.45 C 4771 3312 M
-116 -38 V
stroke
LTb
0.00 0.62 0.45 C 4600 3352 M
55 -78 V
stroke
LTb
0.00 0.62 0.45 C 4472 3038 M
183 236 V
stroke
LTb
0.00 0.62 0.45 C 4561 2897 M
89 -90 V
stroke
LTb
0.00 0.62 0.45 C 2754 3394 M
-182 -29 V
stroke
LTb
0.00 0.62 0.45 C 2301 3274 M
271 91 V
stroke
LTb
0.00 0.62 0.45 C 2661 3104 M
-89 261 V
stroke
LTb
0.00 0.62 0.45 C 2483 3351 M
89 14 V
stroke
LTb
0.58 0.00 0.83 C 5108 3183 M
-184 102 V
stroke
LTb
0.00 0.62 0.45 C 4384 3237 M
147 132 V
stroke
LTb
0.00 0.62 0.45 C 2750 2894 M
-182 -28 V
stroke
LTb
0.58 0.00 0.83 C 1937 3132 M
-182 5 V
stroke
LTb
0.00 0.62 0.45 C 2843 3113 M
-89 281 V
stroke
LTb
0.00 0.62 0.45 C 2666 3410 M
88 -16 V
stroke
LTb
0.00 0.62 0.45 C 2937 3433 M
-183 -39 V
stroke
LTb
0.58 0.00 0.83 C 5019 3217 M
89 -34 V
stroke
LTb
0.00 0.62 0.45 C 2750 2894 M
-89 210 V
stroke
LTb
0.00 0.62 0.45 C 2843 3113 M
-182 -9 V
stroke
LTb
0.00 0.62 0.45 C 4290 2933 M
271 -36 V
stroke
LTb
0.00 0.62 0.45 C 4472 3038 M
89 -141 V
stroke
LTb
0.00 0.62 0.45 C 2932 2939 M
-182 -45 V
stroke
LTb
0.00 0.62 0.45 C 4384 3237 M
-86 182 V
stroke
LTb
0.00 0.62 0.45 C 4113 3247 M
175 174 V
stroke
LTb
0.00 0.62 0.45 C 4201 3033 M
183 204 V
stroke
LTb
0.00 0.62 0.45 C 4472 3038 M
-88 199 V
stroke
LTb
0.00 0.62 0.45 C 2848 3449 M
89 -16 V
stroke
LTb
0.00 0.62 0.45 C 3068 3468 M
-131 -35 V
stroke
LTb
0.00 0.62 0.45 C 3025 3152 M
-88 281 V
stroke
LTb
0.00 0.62 0.45 C 3296 3010 M
261 37 V
stroke
LTb
0.00 0.62 0.45 C 4290 2933 M
182 105 V
stroke
LTb
0.00 0.62 0.45 C 4019 2989 M
271 -56 V
stroke
LTb
0.00 0.62 0.45 C 4201 3033 M
89 -100 V
stroke
LTb
0.00 0.62 0.45 C 3114 2978 M
-182 -39 V
stroke
LTb
0.00 0.62 0.45 C 2843 3113 M
89 -174 V
stroke
LTb
0.58 0.00 0.83 C 2119 3190 M
-182 -58 V
stroke
LTb
0.00 0.62 0.45 C 3207 3220 M
-84 248 V
stroke
LTb
0.58 0.00 0.83 C 2848 3449 M
214 25 V
stroke
LTb
0.00 0.62 0.45 C 3025 3152 M
-182 -39 V
stroke
LTb
0.00 0.62 0.45 C 3842 3318 M
162 134 V
stroke
LTb
0.00 0.62 0.45 C 4113 3247 M
-82 203 V
stroke
LTb
0.00 0.62 0.45 C 4201 3033 M
-182 -44 V
stroke
LTb
0.00 0.62 0.45 C 3931 3073 M
88 -84 V
stroke
LTb
0.00 0.62 0.45 C 3748 3015 M
271 -26 V
stroke
LTb
0.58 0.00 0.83 C 2301 3274 M
-182 -84 V
stroke
LTb
0.00 0.62 0.45 C 5019 3217 M
-170 78 V
stroke
LTb
0.00 0.62 0.45 C 2483 3351 M
-182 -77 V
stroke
LTb
0.00 0.62 0.45 C 3390 3320 M
182 116 V
stroke
LTb
0.00 0.62 0.45 C 3537 3476 M
35 -40 V
stroke
LTb
0.00 0.62 0.45 C 3651 3474 M
-79 -38 V
stroke
LTb
0.00 0.62 0.45 C 3660 3160 M
-88 276 V
stroke
LTb
0.00 0.62 0.45 C 3931 3073 M
182 174 V
stroke
LTb
0.00 0.62 0.45 C 4201 3033 M
-88 214 V
stroke
LTb
0.58 0.00 0.83 C 3483 3537 M
195 -10 V
stroke
LTb
0.00 0.62 0.45 C 3842 3318 M
-64 146 V
stroke
LTb
0.00 0.62 0.45 C 2666 3410 M
-183 -59 V
stroke
LTb
0.00 0.62 0.45 C 3296 3010 M
-182 -32 V
stroke
LTb
0.00 0.62 0.45 C 3025 3152 M
89 -174 V
stroke
LTb
0.58 0.00 0.83 C 3030 3468 M
271 56 V
stroke
LTb
0.58 0.00 0.83 C 3212 3468 M
89 56 V
stroke
LTb
0.58 0.00 0.83 C 3483 3537 M
-182 -13 V
stroke
LTb
0.00 0.62 0.45 C 3390 3320 M
-63 143 V
stroke
LTb
0.00 0.62 0.45 C 3207 3220 M
-182 -68 V
stroke
LTb
0.00 0.62 0.45 C 4930 3277 M
89 -60 V
stroke
LTb
0.00 0.62 0.45 C 3931 3073 M
-89 245 V
stroke
LTb
0.00 0.62 0.45 C 3660 3160 M
182 158 V
stroke
LTb
0.00 0.62 0.45 C 3478 3060 M
-88 260 V
stroke
LTb
0.00 0.62 0.45 C 3207 3220 M
183 100 V
stroke
LTb
0.00 0.62 0.45 C 2848 3449 M
-182 -39 V
stroke
LTb
0.00 0.62 0.45 C 3296 3010 M
-89 210 V
stroke
LTb
0.00 0.62 0.45 C 3660 3160 M
88 -145 V
stroke
LTb
0.00 0.62 0.45 C 3931 3073 M
-183 -58 V
stroke
LTb
0.00 0.62 0.45 C 3478 3060 M
270 -45 V
stroke
LTb
0.00 0.62 0.45 C 3478 3060 M
-182 -50 V
stroke
LTb
0.58 0.00 0.83 C 3394 3461 M
89 76 V
stroke
LTb
0.58 0.00 0.83 C 3638 3509 M
-155 28 V
stroke
LTb
0.58 0.00 0.83 C 3030 3468 M
-182 -19 V
stroke
LTb
0.00 0.62 0.45 C 3478 3060 M
182 100 V
stroke
LTb
0.00 0.62 0.45 C 4841 3400 M
89 -123 V
stroke
LTb
0.00 0.62 0.45 C 4659 3337 M
271 -60 V
stroke
LTb
0.58 0.00 0.83 C 3212 3468 M
-182 0 V
stroke
LTb
0.00 0.62 0.45 C 4570 3407 M
89 -70 V
stroke
LTb
0.00 0.62 0.45 C 4841 3400 M
-182 -63 V
stroke
LTb
0.00 0.62 0.45 C 4388 3406 M
271 -69 V
stroke
LTb
0.00 0.62 0.45 C 4117 3446 M
271 -40 V
stroke
LTb
0.00 0.62 0.45 C 4299 3441 M
89 -35 V
stroke
LTb
0.00 0.62 0.45 C 4570 3407 M
-182 -1 V
stroke
LTb
0.00 0.62 0.45 C 4752 3561 M
89 -161 V
stroke
LTb
0.00 0.62 0.45 C 4663 3655 M
89 -94 V
stroke
LTb
0.00 0.62 0.45 C 4570 3407 M
182 154 V
stroke
LTb
0.58 0.00 0.83 C 3394 3461 M
-182 7 V
stroke
LTb
0.00 0.62 0.45 C 4299 3441 M
-182 5 V
stroke
LTb
0.00 0.62 0.45 C 4028 3489 M
89 -43 V
stroke
LTb
0.00 0.62 0.45 C 3846 3459 M
271 -13 V
stroke
LTb
0.00 0.62 0.45 C 4481 3578 M
89 -171 V
stroke
LTb
0.00 0.62 0.45 C 4411 3676 M
70 -98 V
stroke
LTb
0.00 0.62 0.45 C 4299 3441 M
182 137 V
stroke
LTb
0.00 0.62 0.45 C 4663 3655 M
-182 -77 V
stroke
LTb
0.58 0.00 0.83 C 4543 3675 M
120 -20 V
stroke
LTb
0.58 0.00 0.83 C 4575 3651 M
88 4 V
stroke
LTb
0.00 0.62 0.45 C 4028 3489 M
-182 -30 V
stroke
LTb
0.00 0.62 0.45 C 3576 3480 M
270 -21 V
stroke
LTb
0.00 0.62 0.45 C 3757 3563 M
89 -104 V
stroke
LTb
0.58 0.00 0.83 C 3576 3480 M
-182 -19 V
stroke
LTb
0.00 0.62 0.45 C 4210 3618 M
89 -177 V
stroke
LTb
0.00 0.62 0.45 C 4355 3684 M
-145 -66 V
stroke
LTb
0.00 0.62 0.45 C 4122 3736 M
88 -118 V
stroke
LTb
0.00 0.62 0.45 C 4028 3489 M
182 129 V
stroke
LTb
0.58 0.00 0.83 C 4122 3736 M
255 -33 V
stroke
LTb
0.00 0.62 0.45 C 3757 3563 M
182 120 V
stroke
LTb
0.00 0.62 0.45 C 4122 3736 M
-183 -53 V
stroke
LTb
0.00 0.62 0.45 C 4028 3489 M
-89 194 V
stroke
LTb
0.00 0.62 0.45 C 3757 3563 M
-181 -83 V
stroke
LTb
0.58 0.00 0.83 C 4304 3692 M
-182 44 V
stroke
LTb
0.00 0.62 0.45 C 4304 3692 M
271 -41 V
stroke
LTb
0.00 0.62 0.45 C 4486 3719 M
89 -68 V
stroke
LTb
0.00 0.62 0.45 C 4486 3719 M
-182 -27 V
% End plot #1
% Begin plot #2
stroke
LCb setrgbcolor
/Helvetica findfont 140 scalefont setfont
/vshift -46 def
6339 4696 M
(sin\(x*x+y*y\)/\(x*x+y*y\)) Rshow
1.000 UL
LTb
0.58 0.00 0.83 C 0.58 0.00 0.83 C 6423 4696 M
399 0 V
% End plot #2
stroke
LTb
LCb setrgbcolor
4486 2746 M
6174 1239 L
stroke
LTb
LCb setrgbcolor
4486 2746 M
1026 2012 L
stroke
LTb
LCb setrgbcolor
1026 2012 M
2714 503 L
stroke
LTb
LCb setrgbcolor
6174 1239 M
2714 503 L
stroke
LTb
LCb setrgbcolor
1026 2012 M
0 1929 V
stroke
LTb
LCb setrgbcolor
2714 503 M
0 973 V
stroke
LTb
LCb setrgbcolor
6174 1239 M
0 973 V
stroke
LTb
LCb setrgbcolor
4486 2746 M
0 973 V
stroke
LTb
LCb setrgbcolor
2680 533 M
34 -30 V
stroke
LTb
LCb setrgbcolor
1026 2012 M
34 -31 V
stroke
2759 436 M
[ [(Helvetica) 140.0 0.0 true true 0 (-3)]
] -46.7 MCshow
1.000 UL
LTb
LCb setrgbcolor
1.000 UL
LTb
LCb setrgbcolor
3257 656 M
34 -30 V
stroke
LTb
LCb setrgbcolor
1603 2134 M
34 -30 V
stroke
3336 559 M
[ [(Helvetica) 140.0 0.0 true true 0 (-2)]
] -46.7 MCshow
1.000 UL
LTb
LCb setrgbcolor
1.000 UL
LTb
LCb setrgbcolor
3833 779 M
34 -31 V
stroke
LTb
LCb setrgbcolor
2180 2257 M
34 -30 V
stroke
3912 681 M
[ [(Helvetica) 140.0 0.0 true true 0 (-1)]
] -46.7 MCshow
1.000 UL
LTb
LCb setrgbcolor
1.000 UL
LTb
LCb setrgbcolor
4409 901 M
34 -30 V
stroke
LTb
LCb setrgbcolor
2757 2379 M
34 -30 V
stroke
4489 804 M
[ [(Helvetica) 140.0 0.0 true true 0 ( 0)]
] -46.7 MCshow
1.000 UL
LTb
LCb setrgbcolor
1.000 UL
LTb
LCb setrgbcolor
4986 1024 M
34 -30 V
stroke
LTb
LCb setrgbcolor
3333 2502 M
34 -30 V
stroke
5065 926 M
[ [(Helvetica) 140.0 0.0 true true 0 ( 1)]
] -46.7 MCshow
1.000 UL
LTb
LCb setrgbcolor
1.000 UL
LTb
LCb setrgbcolor
5563 1147 M
34 -31 V
stroke
LTb
LCb setrgbcolor
3909 2624 M
34 -31 V
stroke
5642 1049 M
[ [(Helvetica) 140.0 0.0 true true 0 ( 2)]
] -46.7 MCshow
1.000 UL
LTb
LCb setrgbcolor
1.000 UL
LTb
LCb setrgbcolor
6140 1269 M
34 -30 V
stroke
LTb
LCb setrgbcolor
4486 2746 M
34 -30 V
stroke
6219 1172 M
[ [(Helvetica) 140.0 0.0 true true 0 ( 3)]
] -46.7 MCshow
1.000 UL
LTb
LCb setrgbcolor
1.000 UL
LTb
LCb setrgbcolor
1096 2026 M
-70 -14 V
stroke
LTb
LCb setrgbcolor
4486 2746 M
-70 -15 V
stroke
934 1979 M
[ [(Helvetica) 140.0 0.0 true true 0 (-3)]
] -46.7 MRshow
1.000 UL
LTb
LCb setrgbcolor
1.000 UL
LTb
LCb setrgbcolor
1377 1775 M
-69 -15 V
stroke
LTb
LCb setrgbcolor
4767 2496 M
-69 -15 V
stroke
1215 1727 M
[ [(Helvetica) 140.0 0.0 true true 0 (-2)]
] -46.7 MRshow
1.000 UL
LTb
LCb setrgbcolor
1.000 UL
LTb
LCb setrgbcolor
1659 1524 M
-70 -15 V
stroke
LTb
LCb setrgbcolor
5048 2244 M
-69 -14 V
stroke
1496 1476 M
[ [(Helvetica) 140.0 0.0 true true 0 (-1)]
] -46.7 MRshow
1.000 UL
LTb
LCb setrgbcolor
1.000 UL
LTb
LCb setrgbcolor
1940 1272 M
-70 -15 V
stroke
LTb
LCb setrgbcolor
5330 1993 M
-70 -15 V
stroke
1778 1225 M
[ [(Helvetica) 140.0 0.0 true true 0 ( 0)]
] -46.7 MRshow
1.000 UL
LTb
LCb setrgbcolor
1.000 UL
LTb
LCb setrgbcolor
2221 1021 M
-69 -15 V
stroke
LTb
LCb setrgbcolor
5611 1742 M
-70 -15 V
stroke
2059 973 M
[ [(Helvetica) 140.0 0.0 true true 0 ( 1)]
] -46.7 MRshow
1.000 UL
LTb
LCb setrgbcolor
1.000 UL
LTb
LCb setrgbcolor
2502 769 M
-69 -14 V
stroke
LTb
LCb setrgbcolor
5892 1490 M
-69 -14 V
stroke
2340 722 M
[ [(Helvetica) 140.0 0.0 true true 0 ( 2)]
] -46.7 MRshow
1.000 UL
LTb
LCb setrgbcolor
1.000 UL
LTb
LCb setrgbcolor
2784 518 M
-70 -15 V
stroke
LTb
LCb setrgbcolor
6174 1239 M
-70 -15 V
stroke
2622 470 M
[ [(Helvetica) 140.0 0.0 true true 0 ( 3)]
] -46.7 MRshow
1.000 UL
LTb
LCb setrgbcolor
1.000 UL
LTb
LCb setrgbcolor
1089 2654 M
-63 0 V
stroke
900 2654 M
[ [(Helvetica) 140.0 0.0 true true 0 (-0.4)]
] -46.7 MRshow
1.000 UL
LTb
LCb setrgbcolor
1.000 UL
LTb
LCb setrgbcolor
1089 2838 M
-63 0 V
stroke
900 2838 M
[ [(Helvetica) 140.0 0.0 true true 0 (-0.2)]
] -46.7 MRshow
1.000 UL
LTb
LCb setrgbcolor
1.000 UL
LTb
LCb setrgbcolor
1089 3022 M
-63 0 V
stroke
900 3022 M
[ [(Helvetica) 140.0 0.0 true true 0 ( 0)]
] -46.7 MRshow
1.000 UL
LTb
LCb setrgbcolor
1.000 UL
LTb
LCb setrgbcolor
1089 3206 M
-63 0 V
stroke
900 3206 M
[ [(Helvetica) 140.0 0.0 true true 0 ( 0.2)]
] -46.7 MRshow
1.000 UL
LTb
LCb setrgbcolor
1.000 UL
LTb
LCb setrgbcolor
1089 3390 M
-63 0 V
stroke
900 3390 M
[ [(Helvetica) 140.0 0.0 true true 0 ( 0.4)]
] -46.7 MRshow
1.000 UL
LTb
LCb setrgbcolor
1.000 UL
LTb
LCb setrgbcolor
1089 3573 M
-63 0 V
stroke
900 3573 M
[ [(Helvetica) 140.0 0.0 true true 0 ( 0.6)]
] -46.7 MRshow
1.000 UL
LTb
LCb setrgbcolor
1.000 UL
LTb
LCb setrgbcolor
1089 3757 M
-63 0 V
stroke
900 3757 M
[ [(Helvetica) 140.0 0.0 true true 0 ( 0.8)]
] -46.7 MRshow
1.000 UL
LTb
LCb setrgbcolor
1.000 UL
LTb
LCb setrgbcolor
1089 3941 M
-63 0 V
stroke
900 3941 M
[ [(Helvetica) 140.0 0.0 true true 0 ( 1)]
] -46.7 MRshow
1.000 UL
LTb
LCb setrgbcolor
1.000 UP
stroke
grestore
end
showpage
